<?xml version="1.0" encoding="UTF-8"?>
<svg width="398px" height="358px" viewBox="0 0 398 358" version="1.1" xmlns="http://www.w3.org/2000/svg" xmlns:xlink="http://www.w3.org/1999/xlink">
    <!-- Generator: Sketch 48.2 (47327) - http://www.bohemiancoding.com/sketch -->
    <title>295393-P7AO8W-243</title>
    <desc>Created with Sketch.</desc>
    <defs>
        <polyline id="path-1" points="0.72 8.614 0.72 0.839 7.473 4.715 0.72 8.614"></polyline>
        <polyline id="path-3" points="0.72 11.88 0.72 4.614 7.473 0.715 13.784 4.337 0.72 11.88"></polyline>
        <polyline id="path-5" points="105.196 84.647 105.196 84.647 0.72 24.68 0.72 7.88 13.784 0.337 105.196 52.807 105.195 84.646 105.196 84.647"></polyline>
        <polyline id="path-7" points="0.196 123.645 0.196 91.807 0.195 91.805 0.196 91.805 157.719 0.859 157.719 0.851 157.719 32.692 0.195 123.646"></polyline>
        <polyline id="path-9" points="0.196 91.805 0.196 91.804 157.712 0.855 157.719 0.859 0.196 91.805"></polyline>
        <polyline id="path-11" points="0.719 0.859 0.719 0.859 0.712 0.855 0.719 0.851 0.719 0.859"></polyline>
    </defs>
    <g id="Page-1" stroke="none" stroke-width="1" fill="none" fill-rule="evenodd">
        <g id="295393-P7AO8W-243">
            <path d="M9.762,273.657 L254.872,132.143 C263.272,127.293 273.622,127.293 282.023,132.142 L388.288,193.476 C396.746,198.357 396.747,210.565 388.289,215.448 L152.433,351.619 C138.288,359.786 120.86,359.787 106.715,351.622 L9.764,295.664 C1.292,290.774 1.292,278.548 9.762,273.657" id="Fill-4" fill="#4FC0DF"></path>
            <path d="M388.288,147.543 C401.008,154.884 401.433,176.505 388.383,184.003 L149.62,321.887 C137.216,329.05 121.933,329.051 109.527,321.889 L9.639,264.218 C-2.985,256.929 -2.31,234.672 9.762,227.726 L388.288,147.543" id="Fill-5" fill="#92C7DD"></path>
            <path d="M381.512,143.632 L282.023,86.209 C273.622,81.36 263.272,81.361 254.872,86.211 L9.762,227.726 C2.76,231.769 1.563,240.814 6.14,246.595 L381.512,143.632" id="Fill-6" fill="#CBE9EF"></path>
            <path d="M388.288,147.543 L381.512,143.632 L6.14,246.595 C7.099,247.807 8.295,248.885 9.764,249.731 L106.715,305.69 C120.86,313.855 138.288,313.854 152.433,305.687 L388.289,169.516 C396.747,164.633 396.746,152.425 388.288,147.543" id="Fill-7" fill="#C1E0E9"></path>
            <polyline id="Fill-8" fill="#91BDDB" points="28.576 224.129 154.824 297.018 375.758 169.461 249.51 96.572 28.576 224.129"></polyline>
            <path d="M309.261,122.574 L332.416,135.942 C333.688,136.677 335.256,136.68 336.531,135.95 C337.869,135.184 337.872,133.257 336.538,132.486 L313.523,119.199 C312.207,118.439 310.586,118.436 309.267,119.191 C307.961,119.938 307.957,121.821 309.261,122.574" id="Fill-9" fill="#9AC3CE"></path>
            <path d="M309.267,120.146 C310.586,119.391 312.207,119.395 313.523,120.154 L336.538,133.442 C337.044,133.734 337.355,134.192 337.478,134.69 C337.673,133.878 337.362,132.962 336.538,132.486 L313.523,119.199 C312.207,118.439 310.586,118.436 309.267,119.191 C308.452,119.657 308.145,120.565 308.345,121.366 C308.465,120.878 308.771,120.43 309.267,120.146" id="Fill-10" fill="#7CAFC1"></path>
            <path d="M83.76,273.811 C80.245,276.696 74.384,277.034 70.668,274.565 C66.953,272.096 66.791,267.755 70.306,264.869 C73.821,261.984 79.683,261.646 83.397,264.115 C87.113,266.584 87.275,270.926 83.76,273.811" id="Fill-11" fill="#91BCCC"></path>
            <path d="M82.942,273.564 C79.854,276.099 74.706,276.396 71.442,274.227 C68.179,272.058 68.036,268.244 71.124,265.71 C74.212,263.175 79.36,262.879 82.624,265.048 C85.888,267.217 86.029,271.029 82.942,273.564" id="Fill-12" fill="#B5D6E3"></path>
            <path d="M15.336,258.617 C15.668,260.928 14.541,263.002 12.818,263.25 C11.095,263.497 9.43,261.824 9.098,259.514 C8.766,257.202 9.893,255.128 11.615,254.881 C13.338,254.633 15.004,256.306 15.336,258.617" id="Fill-13" fill="#354243"></path>
            <path d="M20.585,263.848 C20.763,265.082 20.161,266.188 19.241,266.32 C18.322,266.453 17.433,265.56 17.256,264.326 C17.078,263.093 17.68,261.986 18.6,261.854 C19.519,261.722 20.408,262.614 20.585,263.848" id="Fill-14" fill="#354243"></path>
            <path d="M91.749,305.982 C91.919,307.16 91.344,308.217 90.467,308.343 C89.589,308.469 88.74,307.616 88.571,306.439 C88.401,305.262 88.976,304.205 89.854,304.079 C90.731,303.953 91.58,304.805 91.749,305.982" id="Fill-15" fill="#354243"></path>
            <path d="M95.499,308.127 C95.668,309.305 95.094,310.361 94.216,310.487 C93.339,310.613 92.49,309.761 92.32,308.584 C92.151,307.406 92.726,306.35 93.604,306.224 C94.481,306.097 95.33,306.949 95.499,308.127" id="Fill-16" fill="#354243"></path>
            <path d="M99.249,310.271 C99.418,311.448 98.844,312.506 97.966,312.632 C97.089,312.758 96.239,311.905 96.07,310.728 C95.901,309.551 96.476,308.494 97.354,308.367 C98.231,308.241 99.08,309.094 99.249,310.271" id="Fill-17" fill="#354243"></path>
            <path d="M102.999,312.493 C103.168,313.671 102.594,314.728 101.716,314.854 C100.838,314.979 99.989,314.127 99.82,312.95 C99.651,311.772 100.226,310.716 101.104,310.59 C101.98,310.463 102.829,311.315 102.999,312.493" id="Fill-18" fill="#354243"></path>
            <path d="M106.749,314.638 C106.918,315.814 106.344,316.872 105.466,316.998 C104.588,317.124 103.739,316.271 103.57,315.094 C103.401,313.917 103.976,312.86 104.853,312.733 C105.73,312.607 106.579,313.46 106.749,314.638" id="Fill-19" fill="#354243"></path>
            <path d="M43.235,279.279 C43.293,279.68 43.097,280.04 42.798,280.083 C42.499,280.126 42.21,279.836 42.152,279.435 C42.094,279.033 42.29,278.673 42.589,278.63 C42.889,278.587 43.178,278.878 43.235,279.279" id="Fill-20" fill="#354243"></path>
            <path d="M70.148,294.855 C70.206,295.257 70.011,295.616 69.711,295.659 C69.412,295.702 69.123,295.412 69.065,295.011 C69.008,294.609 69.203,294.249 69.502,294.206 C69.802,294.163 70.091,294.454 70.148,294.855" id="Fill-21" fill="#354243"></path>
            <path d="M65.888,294.604 L45.119,282.549 C44.507,282.194 44.138,281.532 44.158,280.825 C44.191,279.638 45.481,278.919 46.509,279.515 L66.28,290.992 C67.2,291.525 67.754,292.52 67.724,293.581 C67.697,294.509 66.689,295.07 65.888,294.604" id="Fill-22" fill="#354243"></path>
            <path d="M291.607,234.63 C291.486,235.454 290.874,236.047 290.24,235.953 C289.606,235.86 289.191,235.116 289.313,234.293 C289.434,233.469 290.046,232.876 290.68,232.97 C291.313,233.063 291.729,233.806 291.607,234.63" id="Fill-23" fill="#354243"></path>
            <path d="M357.291,196.966 L343.102,205.037 C342.187,205.558 341.051,204.891 341.06,203.838 C341.069,202.75 341.656,201.749 342.603,201.211 L357.566,192.699 C358.31,192.276 359.231,192.817 359.225,193.673 C359.213,195.036 358.477,196.291 357.291,196.966" id="Fill-24" fill="#354243"></path>
            <path d="M357.703,197.4 L343.515,205.471 C342.599,205.991 341.464,205.325 341.473,204.271 C341.481,203.184 342.069,202.184 343.015,201.646 L357.979,193.133 C358.723,192.711 359.645,193.252 359.637,194.106 C359.626,195.471 358.889,196.726 357.703,197.4" id="Fill-25" fill="#8CC0CF"></path>
            <path d="M357.703,197.4 L343.515,205.471 C342.599,205.991 341.464,205.325 341.473,204.271 C341.481,203.184 342.069,202.184 343.015,201.646 L357.979,193.133 C358.723,192.711 359.645,193.252 359.637,194.106 C359.626,195.471 358.889,196.726 357.703,197.4" id="Fill-26" fill="#8CC0CF"></path>
            <polyline id="Fill-27" fill="#E77C96" points="318.719 161.859 214.555 101.711 56.72 192.837 161.196 252.805 318.719 161.859"></polyline>
            <polyline id="Fill-28" fill="#C04F72" points="214.5 101.525 56.72 192.837 56.72 189.122 214.555 97.996 214.5 101.525"></polyline>
            <polyline id="Fill-29" fill="#9B829E" points="214.5 98.028 214.5 97.996 214.527 98.012 214.5 98.028"></polyline>
            <path d="M59.946,190.974 L59.942,190.972 L214.5,101.525 L221.414,105.528 L221.289,105.6 L214.555,101.711 L59.946,190.974 M224.482,103.757 L214.554,98.027 L214.555,97.996 L224.506,103.743 L224.482,103.757" id="Fill-30" fill="#CD8BA5"></path>
            <path d="M227.581,109.233 L221.289,105.6 L221.414,105.528 L227.697,109.166 L227.581,109.233 M230.775,107.389 L224.482,103.757 L224.506,103.743 L230.798,107.375 L230.775,107.389" id="Fill-31" fill="#E795A9"></path>
            <path d="M315.502,160.001 L227.581,109.233 L227.697,109.166 L315.506,159.999 L315.502,160.001 M318.719,158.144 L230.775,107.389 L230.798,107.375 L318.719,158.144" id="Fill-32" fill="#D58AAA"></path>
            <polyline id="Fill-33" fill="#E77C96" points="161.196 249.09 59.946 190.974 214.555 101.711 315.502 160.001 161.196 249.09"></polyline>
            <path d="M59.942,190.972 L56.72,189.122 L214.5,98.028 L214.5,101.525 L59.942,190.972 M214.554,98.027 L214.527,98.012 L214.555,97.996 L214.554,98.027" id="Fill-34" fill="#E5728F"></path>
            <polyline id="Fill-35" fill="#DA7E98" points="221.414 105.528 214.5 101.525 214.554 98.027 224.482 103.757 221.414 105.528"></polyline>
            <polyline id="Fill-36" fill="#E8839B" points="227.697 109.166 221.414 105.528 224.482 103.757 230.775 107.389 227.697 109.166"></polyline>
            <polyline id="Fill-37" fill="#DE7E9B" points="315.506 159.999 227.697 109.166 230.775 107.389 318.719 158.144 315.506 159.999"></polyline>
            <polyline id="Fill-38" fill="#E5728F" points="214.5 101.525 214.5 98.028 214.527 98.012 214.554 98.027 214.5 101.525"></polyline>
            <polyline id="Fill-39" fill="#A17795" points="56.72 192.837 59.942 190.972 59.946 190.974 56.72 192.837"></polyline>
            <polyline id="Fill-40" fill="#D26281" points="161.196 252.805 56.72 192.837 59.946 190.974 161.196 249.09 161.196 252.804 161.195 252.805"></polyline>
            <polyline id="Fill-41" fill="#C04F72" points="56.72 192.837 56.72 189.122 59.942 190.972 56.72 192.837"></polyline>
            <polyline id="Fill-42" fill="#A78EB3" points="318.712 161.855 315.502 160.001 315.506 159.999 318.712 161.855"></polyline>
            <polyline id="Fill-43" fill="#DF728C" points="161.196 252.804 161.196 249.09 315.502 160.001 318.712 161.855 161.195 252.805"></polyline>
            <polyline id="Fill-44" fill="#B67294" points="318.712 161.855 315.506 159.999 318.719 158.144 318.719 161.851 318.712 161.855"></polyline>
            <polyline id="Fill-45" fill="#72AED3" points="246.228 138.135 267.997 125.567 267.997 100.43 246.228 112.998 246.228 138.135"></polyline>
            <polyline id="Fill-46" fill="#5A9ECA" points="246.228 138.135 228.812 128.081 228.812 102.943 246.228 112.998 246.228 138.135"></polyline>
            <polyline id="Fill-47" fill="#A0D1E7" points="228.812 102.943 250.581 90.375 267.997 100.43 246.228 112.998 228.812 102.943"></polyline>
            <polyline id="Fill-48" fill="#72AED3" points="246.228 138.135 267.997 125.567 267.997 100.43 246.228 112.998 246.228 138.135"></polyline>
            <polyline id="Fill-49" fill="#5A9ECA" points="246.228 138.135 228.812 128.081 228.812 102.943 246.228 112.998 246.228 138.135"></polyline>
            <polyline id="Fill-50" fill="#A0D1E7" points="228.812 102.943 250.581 90.375 267.997 100.43 246.228 112.998 228.812 102.943"></polyline>
            <polyline id="Fill-51" fill="#7DBDDC" points="246.069 113.47 269.415 99.991 269.415 98.173 246.069 111.651 246.069 113.47"></polyline>
            <polyline id="Fill-52" fill="#67B0D5" points="246.069 113.47 227.394 102.687 227.394 100.869 246.069 111.651 246.069 113.47"></polyline>
            <polyline id="Fill-53" fill="#A0D1E7" points="227.394 100.869 250.739 87.39 269.415 98.173 246.069 111.651 227.394 100.869"></polyline>
            <polyline id="Fill-54" fill="#72AED3" points="258.009 101.401 261.886 99.163 261.886 94.687 258.009 96.925 258.009 101.401"></polyline>
            <polyline id="Fill-55" fill="#5A9ECA" points="258.009 101.401 254.907 99.611 254.907 95.134 258.009 96.925 258.009 101.401"></polyline>
            <polyline id="Fill-56" fill="#B4DFED" points="254.907 95.134 258.784 92.896 261.886 94.687 258.009 96.925 254.907 95.134"></polyline>
            <polyline id="Fill-57" fill="#F2AE70" points="145.106 160.513 164.043 149.579 145.106 138.646 126.169 149.579 145.106 160.513"></polyline>
            <polyline id="Fill-58" fill="#E89E53" points="164.043 149.579 164.043 151.184 145.106 162.117 145.106 160.513 164.043 149.579"></polyline>
            <polyline id="Fill-59" fill="#E0863C" points="145.106 162.117 126.169 151.184 126.169 149.579 145.106 160.513 145.106 162.117"></polyline>
            <polyline id="Fill-60" fill="#F2AE70" points="145.106 154.722 161.175 145.444 145.106 136.167 129.038 145.444 145.106 154.722"></polyline>
            <polyline id="Fill-61" fill="#B77138" points="161.175 145.444 161.175 149.725 145.106 159.002 145.106 154.722 161.175 145.444"></polyline>
            <polyline id="Fill-62" fill="#9C572C" points="145.106 159.002 129.038 149.725 129.038 145.444 145.106 154.722 145.106 159.002"></polyline>
            <polyline id="Fill-63" fill="#F2AE70" points="145.106 153.958 164.043 143.025 145.106 132.092 126.169 143.025 145.106 153.958"></polyline>
            <polyline id="Fill-64" fill="#E89E53" points="164.043 143.025 164.043 144.629 145.106 155.563 145.106 153.958 164.043 143.025"></polyline>
            <polyline id="Fill-65" fill="#E0863C" points="145.106 155.563 126.169 144.629 126.169 143.025 145.106 153.958 145.106 155.563"></polyline>
            <polyline id="Fill-66" fill="#F2AE70" points="145.106 148.167 161.175 138.89 145.106 129.613 129.038 138.89 145.106 148.167"></polyline>
            <polyline id="Fill-67" fill="#B77138" points="161.175 138.89 161.175 143.17 145.106 152.448 145.106 148.167 161.175 138.89"></polyline>
            <polyline id="Fill-68" fill="#9C572C" points="145.106 152.448 129.038 143.17 129.038 138.89 145.106 148.167 145.106 152.448"></polyline>
            <polyline id="Fill-69" fill="#F2AE70" points="145.106 147.404 164.043 136.471 145.106 125.538 126.169 136.471 145.106 147.404"></polyline>
            <polyline id="Fill-70" fill="#E89E53" points="164.043 136.471 164.043 138.075 145.106 149.009 145.106 147.404 164.043 136.471"></polyline>
            <polyline id="Fill-71" fill="#E0863C" points="145.106 149.009 126.169 138.075 126.169 136.471 145.106 147.404 145.106 149.009"></polyline>
            <polyline id="Fill-72" fill="#F2AE70" points="145.106 141.613 161.175 132.336 145.106 123.059 129.038 132.336 145.106 141.613"></polyline>
            <polyline id="Fill-73" fill="#B77138" points="161.175 132.336 161.175 136.617 145.106 145.894 145.106 141.613 161.175 132.336"></polyline>
            <polyline id="Fill-74" fill="#9C572C" points="145.106 145.894 129.038 136.617 129.038 132.336 145.106 141.613 145.106 145.894"></polyline>
            <polyline id="Fill-75" fill="#F2AE70" points="145.106 140.85 164.043 129.917 145.106 118.983 126.169 129.917 145.106 140.85"></polyline>
            <polyline id="Fill-76" fill="#E89E53" points="164.043 129.917 164.043 131.521 145.106 142.455 145.106 140.85 164.043 129.917"></polyline>
            <polyline id="Fill-77" fill="#E0863C" points="145.106 142.455 126.169 131.521 126.169 129.917 145.106 140.85 145.106 142.455"></polyline>
            <polyline id="Fill-78" fill="#F2AE70" points="145.106 135.059 161.175 125.782 145.106 116.505 129.038 125.782 145.106 135.059"></polyline>
            <polyline id="Fill-79" fill="#B77138" points="161.175 125.782 161.175 130.063 145.106 139.339 145.106 135.059 161.175 125.782"></polyline>
            <polyline id="Fill-80" fill="#9C572C" points="145.106 139.339 129.038 130.063 129.038 125.782 145.106 135.059 145.106 139.339"></polyline>
            <polyline id="Fill-81" fill="#F2AE70" points="145.106 134.296 164.043 123.363 145.106 112.429 126.169 123.363 145.106 134.296"></polyline>
            <polyline id="Fill-82" fill="#E89E53" points="164.043 123.363 164.043 124.967 145.106 135.9 145.106 134.296 164.043 123.363"></polyline>
            <polyline id="Fill-83" fill="#E0863C" points="145.106 135.9 126.169 124.967 126.169 123.363 145.106 134.296 145.106 135.9"></polyline>
            <polyline id="Fill-84" fill="#F2AE70" points="145.106 128.505 161.175 119.228 145.106 109.951 129.038 119.228 145.106 128.505"></polyline>
            <polyline id="Fill-85" fill="#B77138" points="161.175 119.228 161.175 123.508 145.106 132.786 145.106 128.505 161.175 119.228"></polyline>
            <polyline id="Fill-86" fill="#9C572C" points="145.106 132.786 129.038 123.508 129.038 119.228 145.106 128.505 145.106 132.786"></polyline>
            <polyline id="Fill-87" fill="#F2AE70" points="145.106 127.742 164.043 116.809 145.106 105.875 126.169 116.809 145.106 127.742"></polyline>
            <polyline id="Fill-88" fill="#E89E53" points="164.043 116.809 164.043 118.413 145.106 129.347 145.106 127.742 164.043 116.809"></polyline>
            <polyline id="Fill-89" fill="#E0863C" points="145.106 129.347 126.169 118.413 126.169 116.809 145.106 127.742 145.106 129.347"></polyline>
            <polyline id="Fill-90" fill="#F2AE70" points="145.106 121.951 161.175 112.674 145.106 103.397 129.038 112.674 145.106 121.951"></polyline>
            <polyline id="Fill-91" fill="#B77138" points="161.175 112.674 161.175 116.954 145.106 126.231 145.106 121.951 161.175 112.674"></polyline>
            <polyline id="Fill-92" fill="#9C572C" points="145.106 126.231 129.038 116.954 129.038 112.674 145.106 121.951 145.106 126.231"></polyline>
            <polyline id="Fill-93" fill="#F2AE70" points="145.106 121.188 164.043 110.254 145.106 99.321 126.169 110.254 145.106 121.188"></polyline>
            <polyline id="Fill-94" fill="#E89E53" points="164.043 110.254 164.043 111.859 145.106 122.792 145.106 121.188 164.043 110.254"></polyline>
            <polyline id="Fill-95" fill="#E0863C" points="145.106 122.792 126.169 111.859 126.169 110.254 145.106 121.188 145.106 122.792"></polyline>
            <polyline id="Fill-96" fill="#F2AE70" points="145.106 115.397 161.175 106.12 145.106 96.843 129.038 106.12 145.106 115.397"></polyline>
            <polyline id="Fill-97" fill="#B77138" points="161.175 106.12 161.175 110.4 145.106 119.677 145.106 115.397 161.175 106.12"></polyline>
            <polyline id="Fill-98" fill="#9C572C" points="145.106 119.677 129.038 110.4 129.038 106.12 145.106 115.397 145.106 119.677"></polyline>
            <polyline id="Fill-99" fill="#F2AE70" points="145.106 114.634 164.043 103.7 145.106 92.767 126.169 103.7 145.106 114.634"></polyline>
            <polyline id="Fill-100" fill="#E89E53" points="164.043 103.7 164.043 105.305 145.106 116.238 145.106 114.634 164.043 103.7"></polyline>
            <polyline id="Fill-101" fill="#E0863C" points="145.106 116.238 126.169 105.305 126.169 103.7 145.106 114.634 145.106 116.238"></polyline>
            <polyline id="Fill-102" fill="#F2AE70" points="145.106 108.843 161.175 99.566 145.106 90.289 129.038 99.566 145.106 108.843"></polyline>
            <polyline id="Fill-103" fill="#B77138" points="161.175 99.566 161.175 103.846 145.106 113.123 145.106 108.843 161.175 99.566"></polyline>
            <polyline id="Fill-104" fill="#9C572C" points="145.106 113.123 129.038 103.846 129.038 99.566 145.106 108.843 145.106 113.123"></polyline>
            <polyline id="Fill-105" fill="#F2AE70" points="145.106 108.08 164.043 97.146 145.106 86.213 126.169 97.146 145.106 108.08"></polyline>
            <polyline id="Fill-106" fill="#E89E53" points="164.043 97.146 164.043 98.751 145.106 109.684 145.106 108.08 164.043 97.146"></polyline>
            <polyline id="Fill-107" fill="#E0863C" points="145.106 109.684 126.169 98.751 126.169 97.146 145.106 108.08 145.106 109.684"></polyline>
            <polyline id="Fill-108" fill="#F2AE70" points="145.106 102.289 161.175 93.012 145.106 83.734 129.038 93.012 145.106 102.289"></polyline>
            <polyline id="Fill-109" fill="#B77138" points="161.175 93.012 161.175 97.292 145.106 106.569 145.106 102.289 161.175 93.012"></polyline>
            <polyline id="Fill-110" fill="#9C572C" points="145.106 106.569 129.038 97.292 129.038 93.012 145.106 102.289 145.106 106.569"></polyline>
            <polyline id="Fill-111" fill="#F2AE70" points="145.106 101.525 164.043 90.592 145.106 79.659 126.169 90.592 145.106 101.525"></polyline>
            <polyline id="Fill-112" fill="#E89E53" points="164.043 90.592 164.043 92.197 145.106 103.13 145.106 101.525 164.043 90.592"></polyline>
            <polyline id="Fill-113" fill="#E0863C" points="145.106 103.13 126.169 92.197 126.169 90.592 145.106 101.525 145.106 103.13"></polyline>
            <polyline id="Fill-114" fill="#F2AE70" points="145.106 95.735 161.175 86.458 145.106 77.18 129.038 86.458 145.106 95.735"></polyline>
            <polyline id="Fill-115" fill="#B77138" points="161.175 86.458 161.175 90.738 145.106 100.015 145.106 95.735 161.175 86.458"></polyline>
            <polyline id="Fill-116" fill="#9C572C" points="145.106 100.015 129.038 90.738 129.038 86.458 145.106 95.735 145.106 100.015"></polyline>
            <polyline id="Fill-117" fill="#F2AE70" points="145.106 94.972 164.043 84.038 145.106 73.104 126.169 84.038 145.106 94.972"></polyline>
            <polyline id="Fill-118" fill="#E89E53" points="164.043 84.038 164.043 85.643 145.106 96.576 145.106 94.972 164.043 84.038"></polyline>
            <polyline id="Fill-119" fill="#E0863C" points="145.106 96.576 126.169 85.643 126.169 84.038 145.106 94.972 145.106 96.576"></polyline>
            <polyline id="Fill-120" fill="#F2AE70" points="145.106 89.181 161.175 79.903 145.106 70.626 129.038 79.903 145.106 89.181"></polyline>
            <polyline id="Fill-121" fill="#B77138" points="161.175 79.903 161.175 84.184 145.106 93.461 145.106 89.181 161.175 79.903"></polyline>
            <polyline id="Fill-122" fill="#9C572C" points="145.106 93.461 129.038 84.184 129.038 79.903 145.106 89.181 145.106 93.461"></polyline>
            <polyline id="Fill-123" fill="#F2AE70" points="145.106 88.417 164.043 77.484 145.106 66.551 126.169 77.484 145.106 88.417"></polyline>
            <polyline id="Fill-124" fill="#E89E53" points="164.043 77.484 164.043 79.088 145.106 90.022 145.106 88.417 164.043 77.484"></polyline>
            <polyline id="Fill-125" fill="#E0863C" points="145.106 90.022 126.169 79.088 126.169 77.484 145.106 88.417 145.106 90.022"></polyline>
            <polyline id="Fill-126" fill="#F2AE70" points="145.106 82.626 161.175 73.349 145.106 64.072 129.038 73.349 145.106 82.626"></polyline>
            <polyline id="Fill-127" fill="#B77138" points="161.175 73.349 161.175 77.629 145.106 86.907 145.106 82.626 161.175 73.349"></polyline>
            <polyline id="Fill-128" fill="#9C572C" points="145.106 86.907 129.038 77.629 129.038 73.349 145.106 82.626 145.106 86.907"></polyline>
            <polyline id="Fill-129" fill="#F2AE70" points="145.106 81.863 164.043 70.93 145.106 59.997 126.169 70.93 145.106 81.863"></polyline>
            <polyline id="Fill-130" fill="#E89E53" points="164.043 70.93 164.043 72.534 145.106 83.468 145.106 81.863 164.043 70.93"></polyline>
            <polyline id="Fill-131" fill="#E0863C" points="145.106 83.468 126.169 72.534 126.169 70.93 145.106 81.863 145.106 83.468"></polyline>
            <polyline id="Fill-132" fill="#F2AE70" points="145.106 76.072 161.175 66.795 145.106 57.518 129.038 66.795 145.106 76.072"></polyline>
            <polyline id="Fill-133" fill="#B77138" points="161.175 66.795 161.175 71.075 145.106 80.353 145.106 76.072 161.175 66.795"></polyline>
            <polyline id="Fill-134" fill="#9C572C" points="145.106 80.353 129.038 71.075 129.038 66.795 145.106 76.072 145.106 80.353"></polyline>
            <polyline id="Fill-135" fill="#F2AE70" points="145.106 75.309 164.043 64.376 145.106 53.442 126.169 64.376 145.106 75.309"></polyline>
            <polyline id="Fill-136" fill="#E89E53" points="164.043 64.376 164.043 65.98 145.106 76.914 145.106 75.309 164.043 64.376"></polyline>
            <polyline id="Fill-137" fill="#E0863C" points="145.106 76.914 126.169 65.98 126.169 64.376 145.106 75.309 145.106 76.914"></polyline>
            <polyline id="Fill-138" fill="#F2AE70" points="145.106 69.518 161.175 60.241 145.106 50.964 129.038 60.241 145.106 69.518"></polyline>
            <polyline id="Fill-139" fill="#B77138" points="161.175 60.241 161.175 64.521 145.106 73.798 145.106 69.518 161.175 60.241"></polyline>
            <polyline id="Fill-140" fill="#9C572C" points="145.106 73.798 129.038 64.521 129.038 60.241 145.106 69.518 145.106 73.798"></polyline>
            <polyline id="Fill-141" fill="#F2AE70" points="145.106 68.755 164.043 57.822 145.106 46.888 126.169 57.822 145.106 68.755"></polyline>
            <polyline id="Fill-142" fill="#E89E53" points="164.043 57.822 164.043 59.426 145.106 70.359 145.106 68.755 164.043 57.822"></polyline>
            <polyline id="Fill-143" fill="#E0863C" points="145.106 70.359 126.169 59.426 126.169 57.822 145.106 68.755 145.106 70.359"></polyline>
            <polyline id="Fill-144" fill="#F2AE70" points="145.106 62.964 161.175 53.687 145.106 44.41 129.038 53.687 145.106 62.964"></polyline>
            <polyline id="Fill-145" fill="#B77138" points="161.175 53.687 161.175 57.967 145.106 67.244 145.106 62.964 161.175 53.687"></polyline>
            <polyline id="Fill-146" fill="#9C572C" points="145.106 67.244 129.038 57.967 129.038 53.687 145.106 62.964 145.106 67.244"></polyline>
            <polyline id="Fill-147" fill="#F2AE70" points="145.106 62.201 164.043 51.268 145.106 40.334 126.169 51.268 145.106 62.201"></polyline>
            <polyline id="Fill-148" fill="#E89E53" points="164.043 51.268 164.043 52.872 145.106 63.805 145.106 62.201 164.043 51.268"></polyline>
            <polyline id="Fill-149" fill="#E0863C" points="145.106 63.805 126.169 52.872 126.169 51.268 145.106 62.201 145.106 63.805"></polyline>
            <polyline id="Fill-150" fill="#F2AE70" points="145.106 56.41 161.175 47.133 145.106 37.855 129.038 47.133 145.106 56.41"></polyline>
            <polyline id="Fill-151" fill="#B77138" points="161.175 47.133 161.175 51.413 145.106 60.69 145.106 56.41 161.175 47.133"></polyline>
            <polyline id="Fill-152" fill="#9C572C" points="145.106 60.69 129.038 51.413 129.038 47.133 145.106 56.41 145.106 60.69"></polyline>
            <polyline id="Fill-153" fill="#F2AE70" points="145.106 55.647 164.043 44.713 145.106 33.78 126.169 44.713 145.106 55.647"></polyline>
            <polyline id="Fill-154" fill="#E89E53" points="164.043 44.713 164.043 46.318 145.106 57.251 145.106 55.647 164.043 44.713"></polyline>
            <polyline id="Fill-155" fill="#E0863C" points="145.106 57.251 126.169 46.318 126.169 44.713 145.106 55.647 145.106 57.251"></polyline>
            <polyline id="Fill-156" fill="#F2AE70" points="145.106 49.856 161.175 40.579 145.106 31.302 129.038 40.579 145.106 49.856"></polyline>
            <polyline id="Fill-157" fill="#F2AE70" points="145.106 47.4 156.92 40.579 145.106 33.758 133.292 40.579 145.106 47.4"></polyline>
            <polyline id="Fill-158" fill="#E8A166" points="145.106 47.4 156.92 40.579 145.106 33.758 133.292 40.579 145.106 47.4"></polyline>
            <polyline id="Fill-159" fill="#D78C51" points="145.106 34.858 155.968 41.129 156.92 40.579 145.106 33.758 133.292 40.579 134.245 41.129 145.106 34.858"></polyline>
            <polyline id="Fill-160" fill="#B77138" points="161.175 40.579 161.175 44.859 145.106 54.136 145.106 49.856 161.175 40.579"></polyline>
            <polyline id="Fill-161" fill="#9C572C" points="145.106 54.136 129.038 44.859 129.038 40.579 145.106 49.856 145.106 54.136"></polyline>
            <polyline id="Fill-162" fill="#81A8CD" points="186.137 180.293 186.137 78.249 211.387 63.67 211.387 165.716 186.137 180.293"></polyline>
            <polyline id="Fill-163" fill="#648FBC" points="186.137 180.293 160.887 165.716 160.887 63.67 186.137 78.249 186.137 180.293"></polyline>
            <polyline id="Fill-164" fill="#91B9D8" points="160.887 63.67 186.137 49.093 211.387 63.67 186.137 78.249 160.887 63.67"></polyline>
            <polyline id="Fill-165" fill="#81A8CD" points="186.137 74.604 186.137 36.436 205.244 25.404 205.244 63.572 186.137 74.604"></polyline>
            <polyline id="Fill-166" fill="#648FBC" points="186.137 74.604 167.029 63.572 167.029 25.404 186.137 36.436 186.137 74.604"></polyline>
            <polyline id="Fill-167" fill="#91B9D8" points="167.029 25.404 186.137 14.372 205.244 25.404 186.137 36.436 167.029 25.404"></polyline>
            <polyline id="Fill-168" fill="#81A8CD" points="186.137 33.555 186.137 19.937 201.713 10.944 201.713 24.561 186.137 33.555"></polyline>
            <polyline id="Fill-169" fill="#648FBC" points="186.137 33.555 170.56 24.561 170.56 10.944 186.137 19.937 186.137 33.555"></polyline>
            <polyline id="Fill-170" fill="#91B9D8" points="170.56 10.944 186.137 1.951 201.713 10.944 186.137 19.937 170.56 10.944"></polyline>
            <polyline id="Fill-171" fill="#81A8CD" points="186.137 17.154 186.137 10.13 194.171 5.492 194.171 12.516 186.137 17.154"></polyline>
            <polyline id="Fill-172" fill="#648FBC" points="186.137 17.154 178.102 12.516 178.102 5.492 186.137 10.13 186.137 17.154"></polyline>
            <polyline id="Fill-173" fill="#91B9D8" points="178.102 5.492 186.137 0.852 194.171 5.492 186.137 10.13 178.102 5.492"></polyline>
            <polyline id="Fill-174" fill="#639BB8" points="135.638 220.101 135.638 118.055 104.075 99.833 104.075 201.878 135.638 220.101"></polyline>
            <polyline id="Fill-175" fill="#71A8C9" points="135.638 220.101 148.263 212.812 148.263 110.766 135.638 118.055 135.638 220.101"></polyline>
            <polyline id="Fill-176" fill="#7AB0D3" points="148.263 110.766 116.7 92.544 104.075 99.833 135.638 118.055 148.263 110.766"></polyline>
            <polyline id="Fill-177" fill="#429B6D" points="163.36 188.246 163.36 90.084 186.545 103.47 186.545 201.632 163.36 188.246"></polyline>
            <polyline id="Fill-178" fill="#B0DDE3" points="163.36 90.084 172.695 84.811 195.88 98.196 186.545 103.47 163.36 90.084"></polyline>
            <polyline id="Fill-179" fill="#A5D7D9" points="167.225 90.084 172.695 87.042 192.017 98.196 186.545 101.239 167.225 90.084"></polyline>
            <polyline id="Fill-180" fill="#82CBCF" points="172.695 89.272 190.084 99.312 192.017 98.196 172.695 87.042 167.225 90.084 169.156 91.2 172.695 89.272"></polyline>
            <polyline id="Fill-181" fill="#6FBE96" points="195.88 98.196 195.88 196.358 186.545 201.632 186.545 103.47 195.88 98.196"></polyline>
            <polyline id="Fill-182" fill="#5BB88B" points="150.94 195.422 150.94 97.26 174.125 110.646 174.125 208.808 150.94 195.422"></polyline>
            <polyline id="Fill-183" fill="#B0DDE3" points="150.94 97.26 160.276 91.986 183.461 105.372 174.125 110.646 150.94 97.26"></polyline>
            <polyline id="Fill-184" fill="#A5D7D9" points="154.805 97.26 160.276 94.217 179.597 105.372 174.125 108.415 154.805 97.26"></polyline>
            <polyline id="Fill-185" fill="#82CBCF" points="160.276 96.448 177.665 106.488 179.597 105.372 160.276 94.217 154.805 97.26 156.737 98.375 160.276 96.448"></polyline>
            <polyline id="Fill-186" fill="#6FBE96" points="183.461 105.372 183.461 203.534 174.125 208.808 174.125 110.646 183.461 105.372"></polyline>
            <polyline id="Fill-187" fill="#69BC90" points="147.5 98.66 147.5 92.309 173.327 107.22 173.327 113.571 147.5 98.66"></polyline>
            <polyline id="Fill-188" fill="#97CEAE" points="147.5 92.309 172.695 78.326 198.522 93.237 173.327 107.22 147.5 92.309"></polyline>
            <polyline id="Fill-189" fill="#68BC91" points="151.804 92.309 172.695 80.811 194.219 93.237 173.327 104.735 151.804 92.309"></polyline>
            <polyline id="Fill-190" fill="#4CB483" points="172.695 83.296 192.066 94.479 194.219 93.237 172.695 80.811 151.804 92.309 153.956 93.551 172.695 83.296"></polyline>
            <polyline id="Fill-191" fill="#78C19A" points="198.522 93.237 198.522 99.587 173.327 113.571 173.327 107.22 198.522 93.237"></polyline>
            <polyline id="Fill-192" fill="#639BB8" points="135.638 220.101 135.638 118.055 104.075 99.833 104.075 201.878 135.638 220.101"></polyline>
            <polyline id="Fill-193" fill="#71A8C9" points="135.638 220.101 148.263 212.812 148.263 110.766 135.638 118.055 135.638 220.101"></polyline>
            <polyline id="Fill-194" fill="#7AB0D3" points="148.263 110.766 116.7 92.544 104.075 99.833 135.638 118.055 148.263 110.766"></polyline>
            <polyline id="Fill-195" fill="#5B96AC" points="113.969 160.531 113.969 140.871 101.729 133.815 101.729 153.475 113.969 160.531"></polyline>
            <polyline id="Fill-196" fill="#65A8C2" points="113.969 160.531 116.401 159.127 116.401 139.466 113.969 140.871 113.969 160.531"></polyline>
            <polyline id="Fill-197" fill="#71A8C9" points="116.401 139.466 104.162 132.411 101.729 133.815 113.969 140.871 116.401 139.466"></polyline>
            <polyline id="Fill-198" fill="#8875A8" points="234.812 175.506 234.812 134.599 253.749 145.532 253.749 157.255 249.252 183.799 234.812 175.506"></polyline>
            <polyline id="Fill-199" fill="#AE9FC1" points="234.812 134.599 266.373 116.233 285.311 127.167 253.749 145.532 234.812 134.599"></polyline>
            <polyline id="Fill-200" fill="#9889B5" points="237.968 134.599 266.373 118.055 282.154 127.167 253.749 143.71 237.968 134.599"></polyline>
            <polyline id="Fill-201" fill="#8875A8" points="266.373 119.877 280.576 128.078 282.154 127.167 266.373 118.055 237.968 134.599 239.546 135.51 266.373 119.877"></polyline>
            <polyline id="Fill-202" fill="#9481AF" points="285.311 127.167 285.311 139.013 280.813 165.433 249.252 183.799 253.749 157.244 253.749 145.532 285.311 127.167"></polyline>
            <polyline id="Fill-203" fill="#978BB6" points="253.749 145.532 253.749 157.244 285.311 139.013 285.311 127.167 253.749 145.532"></polyline>
            <path d="M242.948,85.253 L224.012,198.23 L205.074,187.486 L205.074,100.173 C205.074,91.056 209.938,82.633 217.833,78.074 L224.012,74.509 L242.948,85.253" id="Fill-204" fill="#5ABBAC"></path>
            <path d="M224.011,198.233 L224.011,110.922 C224.011,101.805 228.875,93.38 236.771,88.821 L242.948,85.255 L242.948,187.3 L224.011,198.233" id="Fill-205" fill="#79C6C0"></path>
            <polyline id="Fill-206" fill="#7278AB" points="186.137 220.101 186.137 190.944 217.698 172.722 217.698 201.878 186.137 220.101"></polyline>
            <polyline id="Fill-207" fill="#5F66A0" points="186.137 190.944 160.887 176.367 160.887 205.522 186.137 220.101 186.137 190.944"></polyline>
            <polyline id="Fill-208" fill="#9496BE" points="160.887 176.367 192.449 158.144 217.698 172.722 186.137 190.944 160.887 176.367"></polyline>
            <polyline id="Fill-209" fill="#7C80B1" points="186.137 190.944 188.878 196.549 220.438 178.428 217.698 172.722 186.137 190.944"></polyline>
            <polyline id="Fill-210" fill="#797DAF" points="188.878 196.549 188.878 199.095 220.438 180.874 220.438 178.428 188.878 196.549"></polyline>
            <polyline id="Fill-211" fill="#7278AB" points="188.177 184.817 188.177 180.131 206.248 169.698 206.248 174.384 188.177 184.817"></polyline>
            <polyline id="Fill-212" fill="#5F66A0" points="188.177 180.131 173.72 171.785 173.72 176.47 188.177 184.817 188.177 180.131"></polyline>
            <polyline id="Fill-213" fill="#9496BE" points="173.72 171.785 191.791 161.351 206.248 169.698 188.177 180.131 173.72 171.785"></polyline>
            <polyline id="Fill-214" fill="#9AC3CE" points="141.95 223.744 141.95 143.566 160.887 154.5 160.887 234.678 141.95 223.744"></polyline>
            <polyline id="Fill-215" fill="#B0DDE3" points="141.95 143.566 160.887 132.633 179.824 143.566 160.887 154.5 141.95 143.566"></polyline>
            <polyline id="Fill-216" fill="#A5D7D9" points="145.106 143.566 160.887 134.455 176.668 143.566 160.887 152.678 145.106 143.566"></polyline>
            <polyline id="Fill-217" fill="#82CBCF" points="160.887 136.277 175.09 144.478 176.668 143.566 160.887 134.455 145.106 143.566 146.685 144.478 160.887 136.277"></polyline>
            <polyline id="Fill-218" fill="#A0CDD7" points="179.824 143.566 179.824 223.744 160.887 234.678 160.887 154.5 179.824 143.566"></polyline>
            <polyline id="Fill-219" fill="#6C83B4" points="56.72 200.614 56.72 192.839 56.72 200.614"></polyline>
            <polyline id="Fill-220" fill="#6C83B4" points="56.72 224.68 56.72 200.614 56.72 224.68"></polyline>
            <g id="Group-223" transform="translate(56.000000, 192.000000)">
                <mask id="mask-2" fill="white">
                    <use xlink:href="#path-1"></use>
                </mask>
                <g id="Clip-222"></g>
                <polyline id="Fill-221" mask="url(#mask-2)" points="0.72 8.614 0.72 0.839 7.473 4.715 0.72 8.614"></polyline>
            </g>
            <g id="Group-226" transform="translate(56.000000, 196.000000)">
                <mask id="mask-4" fill="white">
                    <use xlink:href="#path-3"></use>
                </mask>
                <g id="Clip-225"></g>
                <polyline id="Fill-224" mask="url(#mask-4)" points="0.72 11.88 0.72 4.614 7.473 0.715 13.784 4.337 0.72 11.88"></polyline>
            </g>
            <g id="Group-229" transform="translate(56.000000, 200.000000)">
                <mask id="mask-6" fill="white">
                    <use xlink:href="#path-5"></use>
                </mask>
                <g id="Clip-228"></g>
                <polyline id="Fill-227" mask="url(#mask-6)" points="105.196 84.647 105.196 84.647 0.72 24.68 0.72 7.88 13.784 0.337 105.196 52.807 105.195 84.646 105.196 84.647"></polyline>
            </g>
            <g id="Group-233" transform="translate(161.000000, 161.000000)">
                <mask id="mask-8" fill="white">
                    <use xlink:href="#path-7"></use>
                </mask>
                <g id="Clip-232"></g>
                <polyline id="Fill-231" mask="url(#mask-8)" points="0.196 123.645 0.196 91.807 0.195 91.805 0.196 91.805 157.719 0.859 157.719 0.851 157.719 32.692 0.195 123.646"></polyline>
            </g>
            <g id="Group-236" transform="translate(161.000000, 161.000000)">
                <mask id="mask-10" fill="white">
                    <use xlink:href="#path-9"></use>
                </mask>
                <g id="Clip-235"></g>
                <polyline id="Fill-234" mask="url(#mask-10)" points="0.196 91.805 0.196 91.804 157.712 0.855 157.719 0.859 0.196 91.805"></polyline>
            </g>
            <g id="Group-239" transform="translate(318.000000, 161.000000)">
                <mask id="mask-12" fill="white">
                    <use xlink:href="#path-11"></use>
                </mask>
                <g id="Clip-238"></g>
                <polyline id="Fill-237" mask="url(#mask-12)" points="0.719 0.859 0.719 0.859 0.712 0.855 0.719 0.851 0.719 0.859"></polyline>
            </g>
        </g>
    </g>
</svg>